/* XPM */
static char * maximizeO_xpm[] = {
"19 58 3 1",
" 	c #211400",
".	c #FFD5A8",
"+	c #884F37",
"                   ",
"                   ",
"                   ",
"                   ",
"                   ",
"                   ",
"                   ",
"    ...........    ",
"   .............   ",
"  ...............  ",
" ...           ... ",
" ...           ... ",
" ...           ... ",
" ...           ... ",
" ...           ... ",
" ...           ... ",
" ...           ... ",
" ...           ... ",
" ...           ... ",
" ...           ... ",
" ...           ... ",
"  ...............  ",
"   .............   ",
"    ...........    ",
"                   ",
"                   ",
"                   ",
"                   ",
"                   ",
"                   ",
"                   ",
"                   ",
"                   ",
"                   ",
"                   ",
"                   ",
"    +++++++++++    ",
"   +++++++++++++   ",
"  +++++++++++++++  ",
" +++           +++ ",
" +++           +++ ",
" +++           +++ ",
" +++           +++ ",
" +++           +++ ",
" +++           +++ ",
" +++           +++ ",
" +++           +++ ",
" +++           +++ ",
" +++           +++ ",
" +++           +++ ",
"  +++++++++++++++  ",
"   +++++++++++++   ",
"    +++++++++++    ",
"                   ",
"                   ",
"                   ",
"                   ",
"                   "};
